…
## Exercise 2

``` r
library(dplyr)
distinct(compas, name)
```

    ## # A tibble: 7,158 × 1
    ##    name              
    ##    <chr>             
    ##  1 miguel hernandez  
    ##  2 kevon dixon       
    ##  3 ed philo          
    ##  4 marcu brown       
    ##  5 bouthy pierrelouis
    ##  6 marsha miles      
    ##  7 edward riddle     
    ##  8 steven stewart    
    ##  9 elizabeth thieme  
    ## 10 bo bradac         
    ## # ℹ 7,148 more rows
…
